{"products":[{"id":1,"name":"Cà chua","slug":"ca-chua","description":"Cà chua organic tươi ngon, được trồng tại Đà Lạt","price":25000,"oldPrice":30000,"image":"https://images.unsplash.com/photo-1592924357228-91a4daadcfea?ixlib=rb-4.0.3&ixid=MnwxMjA3fDB8MHxwaG90by1wYWdlfHx8fGVufDB8fHx8&auto=format&fit=crop&w=1470&q=80","categoryId":1,"rating":4.8,"isNew":true,"isOrganic":true,"isBestseller":true,"details":["Giàu vitamin C","Giúp làm đẹp da","Chống oxy hóa"],"discount":17,"createdAt":"2025-04-12T16:31:54.937Z"}],"pagination":{"total":8,"page":1,"limit":1,"totalPages":8}}